<svg width="110" height="89" viewBox="0 0 110 89" fill="none" xmlns="http://www.w3.org/2000/svg">
<path fill-rule="evenodd" clip-rule="evenodd" d="M11 25.521H98.9993V81.3071C98.9993 85.1006 95.896 88.2033 92.1024 88.2033H17.7959C14.0572 88.2033 11 85.1461 11 81.4081V25.521Z" fill="#F47B20"/>
<path fill-rule="evenodd" clip-rule="evenodd" d="M11 25.5217H99V45.8914C95.5054 45.8914 92.0215 44.8815 89.1449 43.0215C88.7483 42.7647 88.3623 42.4918 87.9898 42.2035C84.9399 44.5545 80.9979 45.8914 76.9997 45.8914C75.8627 45.8914 74.729 45.7831 73.6181 45.5744C70.8284 45.0501 68.1825 43.8883 65.9961 42.1989C62.9456 44.5531 59.0009 45.8914 55 45.8914C50.9998 45.8914 47.0544 44.5531 44.0032 42.1989C43.0615 42.9265 42.0355 43.5559 40.9487 44.0796C38.5081 45.254 35.7639 45.8914 33.0003 45.8914C29.0021 45.8914 25.0594 44.5545 22.0102 42.2035C21.6377 42.4918 21.2524 42.7647 20.8551 43.0215C17.9792 44.8815 14.4953 45.8914 11 45.8914V25.5217Z" fill="#D3671D"/>
<path fill-rule="evenodd" clip-rule="evenodd" d="M22.0003 30.9399L36.7232 0H26.3464L0 30.9399C0 36.0477 4.9259 40.1884 11.0002 40.1884C16.3702 40.1884 20.8413 36.9533 21.807 32.6761L22.0003 30.9399Z" fill="#A2C945"/>
<path fill-rule="evenodd" clip-rule="evenodd" d="M36.7228 0L22 30.9399C22 36.0477 26.9252 40.1884 33.0002 40.1884C38.8838 40.1884 43.6893 36.3038 43.9849 31.4194L44.0003 30.9399L48.3169 0H36.7228Z" fill="#F3F2F1"/>
<path fill-rule="evenodd" clip-rule="evenodd" d="M48.3166 0L44 30.9399C44 36.0477 48.9239 40.1884 54.9995 40.1884C61.0744 40.1884 65.9997 36.0477 65.9997 30.9399L61.6817 0H48.3166Z" fill="#A2C945"/>
<path fill-rule="evenodd" clip-rule="evenodd" d="M61.6836 0L66.0015 30.9399L66.0162 31.4181C66.3119 36.3038 71.1174 40.1884 77.001 40.1884C83.0766 40.1884 88.0005 36.0477 88.0005 30.9399L73.279 0H61.6836Z" fill="#F3F2F1"/>
<path fill-rule="evenodd" clip-rule="evenodd" d="M73.2773 0L87.9988 30.9399L88.1928 32.6761C89.1586 36.9533 93.6304 40.1884 98.9997 40.1884C105.075 40.1884 110 36.0477 110 30.9399L83.6542 0H73.2773Z" fill="#A2C945"/>
<path fill-rule="evenodd" clip-rule="evenodd" d="M11.0002 40.1884C16.3702 40.1884 20.8413 36.9533 21.807 32.6761L22.0003 30.9398H0C0 36.0477 4.9259 40.1884 11.0002 40.1884Z" fill="#86A732"/>
<path fill-rule="evenodd" clip-rule="evenodd" d="M22 30.9398C22 36.0477 26.9252 40.1884 33.0002 40.1884C38.8838 40.1884 43.6893 36.3038 43.9849 31.4194L44.0003 30.9398H22Z" fill="#D6D9D9"/>
<path fill-rule="evenodd" clip-rule="evenodd" d="M44 30.9398C44 36.0477 48.9239 40.1884 54.9995 40.1884C61.0744 40.1884 65.9997 36.0477 65.9997 30.9398H44Z" fill="#86A732"/>
<path fill-rule="evenodd" clip-rule="evenodd" d="M66.0147 31.4181C66.3103 36.3038 71.1159 40.1884 76.9995 40.1884C83.0751 40.1884 87.999 36.0477 87.999 30.9398H66L66.0147 31.4181Z" fill="#D6D9D9"/>
<path fill-rule="evenodd" clip-rule="evenodd" d="M88.194 32.6761C89.1597 36.9533 93.6315 40.1884 99.0008 40.1884C105.076 40.1884 110.001 36.0477 110.001 30.9398H88L88.194 32.6761Z" fill="#86A732"/>
</svg>
