<svg width="228" height="48" viewBox="0 0 228 48" fill="none" xmlns="http://www.w3.org/2000/svg">
<g filter="url(#filter0_d_2496_4895)">
<path d="M223.426 0H4.61036L4 19.9742L4.61036 39.9483H223.426L207.166 19.9742L223.426 0Z" fill="#FCC009"/>
</g>
<defs>
<filter id="filter0_d_2496_4895" x="0" y="0" width="227.426" height="47.9482" filterUnits="userSpaceOnUse" color-interpolation-filters="sRGB">
<feFlood flood-opacity="0" result="BackgroundImageFix"/>
<feColorMatrix in="SourceAlpha" type="matrix" values="0 0 0 0 0 0 0 0 0 0 0 0 0 0 0 0 0 0 127 0" result="hardAlpha"/>
<feOffset dy="4"/>
<feGaussianBlur stdDeviation="2"/>
<feComposite in2="hardAlpha" operator="out"/>
<feColorMatrix type="matrix" values="0 0 0 0 0 0 0 0 0 0 0 0 0 0 0 0 0 0 0.25 0"/>
<feBlend mode="normal" in2="BackgroundImageFix" result="effect1_dropShadow_2496_4895"/>
<feBlend mode="normal" in="SourceGraphic" in2="effect1_dropShadow_2496_4895" result="shape"/>
</filter>
</defs>
</svg>
