{
    "asset" : {
        "generator" : "Khronos glTF Blender I/O v1.3.48",
        "version" : "2.0"
    },
    "extensionsUsed" : [
        "KHR_draco_mesh_compression"
    ],
    "extensionsRequired" : [
        "KHR_draco_mesh_compression"
    ],
    "scene" : 0,
    "scenes" : [
        {
            "name" : "Scene",
            "nodes" : [
                0,
                1,
                2
            ]
        }
    ],
    "nodes" : [
        {
            "mesh" : 0,
            "name" : "alfaceCrespaCarmim_ladoHorizontal",
            "rotation" : [
                0.7071068286895752,
                0,
                0,
                0.7071068286895752
            ],
            "translation" : [
                0.0008329376578330994,
                0.09766118228435516,
                -0.04368903115391731
            ]
        },
        {
            "mesh" : 1,
            "name" : "alfaceCrespaCarmim_topo",
            "translation" : [
                0.0008329376578330994,
                0.09329231083393097,
                0
            ]
        },
        {
            "mesh" : 2,
            "name" : "alfaceCrespaCarmim_ladoHorizontal_001",
            "rotation" : [
                0.7071068286895752,
                0,
                0,
                0.7071068286895752
            ],
            "scale" : [
                0.056379206478595734,
                0.056379206478595734,
                0.056379206478595734
            ],
            "translation" : [
                0.0008329376578330994,
                0.09766118228435516,
                0.04368903115391731
            ]
        }
    ],
    "materials" : [
        {
            "alphaMode" : "BLEND",
            "doubleSided" : true,
            "emissiveFactor" : [
                0,
                0,
                0
            ],
            "name" : "Estacao_B.002",
            "pbrMetallicRoughness" : {
                "baseColorTexture" : {
                    "index" : 0,
                    "texCoord" : 0
                },
                "metallicFactor" : 0,
                "roughnessFactor" : 0.5
            }
        }
    ],
    "meshes" : [
        {
            "name" : "alfaceCrespaCarmim_ladoHorizontal",
            "primitives" : [
                {
                    "attributes" : {
                        "POSITION" : 0,
                        "NORMAL" : 1,
                        "TEXCOORD_0" : 2
                    },
                    "extensions" : {
                        "KHR_draco_mesh_compression" : {
                            "bufferView" : 0,
                            "attributes" : {
                                "POSITION" : 0,
                                "NORMAL" : 1,
                                "TEXCOORD_0" : 2
                            }
                        }
                    },
                    "indices" : 3,
                    "material" : 0,
                    "mode" : 4
                }
            ]
        },
        {
            "name" : "alfaceCrespaCarmim_topo",
            "primitives" : [
                {
                    "attributes" : {
                        "POSITION" : 4,
                        "NORMAL" : 5,
                        "TEXCOORD_0" : 6
                    },
                    "extensions" : {
                        "KHR_draco_mesh_compression" : {
                            "bufferView" : 1,
                            "attributes" : {
                                "POSITION" : 0,
                                "NORMAL" : 1,
                                "TEXCOORD_0" : 2
                            }
                        }
                    },
                    "indices" : 3,
                    "material" : 0,
                    "mode" : 4
                }
            ]
        },
        {
            "name" : "alfaceCrespaCarmim_ladoHorizontal.001",
            "primitives" : [
                {
                    "attributes" : {
                        "POSITION" : 7,
                        "NORMAL" : 8,
                        "TEXCOORD_0" : 9
                    },
                    "extensions" : {
                        "KHR_draco_mesh_compression" : {
                            "bufferView" : 2,
                            "attributes" : {
                                "POSITION" : 0,
                                "NORMAL" : 1,
                                "TEXCOORD_0" : 2
                            }
                        }
                    },
                    "indices" : 3,
                    "material" : 0,
                    "mode" : 4
                }
            ]
        }
    ],
    "textures" : [
        {
            "source" : 0
        }
    ],
    "images" : [
        {
            "mimeType" : "image/png",
            "name" : "Est_B",
            "uri" : "Est_B.png"
        }
    ],
    "accessors" : [
        {
            "componentType" : 5126,
            "count" : 4,
            "max" : [
                2.006917953491211,
                0,
                0.028189603239297867
            ],
            "min" : [
                -2.006917953491211,
                0,
                -0.028189603239297867
            ],
            "type" : "VEC3"
        },
        {
            "componentType" : 5126,
            "count" : 4,
            "type" : "VEC3"
        },
        {
            "componentType" : 5126,
            "count" : 4,
            "type" : "VEC2"
        },
        {
            "componentType" : 5123,
            "count" : 6,
            "type" : "SCALAR"
        },
        {
            "componentType" : 5126,
            "count" : 4,
            "max" : [
                2.012819528579712,
                0,
                0.08306873589754105
            ],
            "min" : [
                -2.012819528579712,
                0,
                -0.08306873589754105
            ],
            "type" : "VEC3"
        },
        {
            "componentType" : 5126,
            "count" : 4,
            "type" : "VEC3"
        },
        {
            "componentType" : 5126,
            "count" : 4,
            "type" : "VEC2"
        },
        {
            "componentType" : 5126,
            "count" : 4,
            "max" : [
                35.59677505493164,
                0,
                0.5
            ],
            "min" : [
                -35.59677505493164,
                0,
                -0.5
            ],
            "type" : "VEC3"
        },
        {
            "componentType" : 5126,
            "count" : 4,
            "type" : "VEC3"
        },
        {
            "componentType" : 5126,
            "count" : 4,
            "type" : "VEC2"
        }
    ],
    "bufferViews" : [
        {
            "buffer" : 0,
            "byteLength" : 201,
            "byteOffset" : 0
        },
        {
            "buffer" : 0,
            "byteLength" : 209,
            "byteOffset" : 204
        },
        {
            "buffer" : 0,
            "byteLength" : 201,
            "byteOffset" : 416
        }
    ],
    "buffers" : [
        {
            "byteLength" : 620,
            "uri" : "P_alfaceCrespaCarmim.bin"
        }
    ]
}
