{
    "asset" : {
        "generator" : "Khronos glTF Blender I/O v1.3.48",
        "version" : "2.0"
    },
    "extensionsUsed" : [
        "KHR_draco_mesh_compression"
    ],
    "extensionsRequired" : [
        "KHR_draco_mesh_compression"
    ],
    "scene" : 0,
    "scenes" : [
        {
            "name" : "Scene",
            "nodes" : [
                0,
                1,
                2
            ]
        }
    ],
    "nodes" : [
        {
            "mesh" : 0,
            "name" : "alfaceCrespaRoxa_ladoHorizontal",
            "rotation" : [
                0.7071068286895752,
                0,
                0,
                0.7071068286895752
            ],
            "translation" : [
                0,
                0.09766100347042084,
                -0.043689001351594925
            ]
        },
        {
            "mesh" : 1,
            "name" : "alfaceCrespaRoxa_topo",
            "translation" : [
                0,
                0.0932919979095459,
                0
            ]
        },
        {
            "mesh" : 2,
            "name" : "alfaceCrespaRoxa_ladoHorizontal_001",
            "rotation" : [
                0.7071068286895752,
                0,
                0,
                0.7071068286895752
            ],
            "scale" : [
                0.05637900158762932,
                0.05637900158762932,
                0.05637900158762932
            ],
            "translation" : [
                0,
                0.09766100347042084,
                0.043689001351594925
            ]
        }
    ],
    "materials" : [
        {
            "alphaMode" : "BLEND",
            "doubleSided" : true,
            "emissiveFactor" : [
                0,
                0,
                0
            ],
            "name" : "Estacao_B.003",
            "pbrMetallicRoughness" : {
                "baseColorTexture" : {
                    "index" : 0,
                    "texCoord" : 0
                },
                "metallicFactor" : 0,
                "roughnessFactor" : 0.5
            }
        }
    ],
    "meshes" : [
        {
            "name" : "alfaceCrespaRoxa_ladoHorizontal",
            "primitives" : [
                {
                    "attributes" : {
                        "POSITION" : 0,
                        "NORMAL" : 1,
                        "TEXCOORD_0" : 2
                    },
                    "extensions" : {
                        "KHR_draco_mesh_compression" : {
                            "bufferView" : 0,
                            "attributes" : {
                                "POSITION" : 0,
                                "NORMAL" : 1,
                                "TEXCOORD_0" : 2
                            }
                        }
                    },
                    "indices" : 3,
                    "material" : 0,
                    "mode" : 4
                }
            ]
        },
        {
            "name" : "alfaceCrespaRoxa_topo",
            "primitives" : [
                {
                    "attributes" : {
                        "POSITION" : 4,
                        "NORMAL" : 5,
                        "TEXCOORD_0" : 6
                    },
                    "extensions" : {
                        "KHR_draco_mesh_compression" : {
                            "bufferView" : 1,
                            "attributes" : {
                                "POSITION" : 0,
                                "NORMAL" : 1,
                                "TEXCOORD_0" : 2
                            }
                        }
                    },
                    "indices" : 3,
                    "material" : 0,
                    "mode" : 4
                }
            ]
        },
        {
            "name" : "alfaceCrespaRoxa_ladoHorizontal.001",
            "primitives" : [
                {
                    "attributes" : {
                        "POSITION" : 7,
                        "NORMAL" : 8,
                        "TEXCOORD_0" : 9
                    },
                    "extensions" : {
                        "KHR_draco_mesh_compression" : {
                            "bufferView" : 2,
                            "attributes" : {
                                "POSITION" : 0,
                                "NORMAL" : 1,
                                "TEXCOORD_0" : 2
                            }
                        }
                    },
                    "indices" : 3,
                    "material" : 0,
                    "mode" : 4
                }
            ]
        }
    ],
    "textures" : [
        {
            "source" : 0
        }
    ],
    "images" : [
        {
            "mimeType" : "image/png",
            "name" : "Est_B",
            "uri" : "Est_B.png"
        }
    ],
    "accessors" : [
        {
            "componentType" : 5126,
            "count" : 4,
            "max" : [
                2.0087292194366455,
                0,
                0.02818950079381466
            ],
            "min" : [
                -2.0087292194366455,
                0,
                -0.02818950079381466
            ],
            "type" : "VEC3"
        },
        {
            "componentType" : 5126,
            "count" : 4,
            "type" : "VEC3"
        },
        {
            "componentType" : 5126,
            "count" : 4,
            "type" : "VEC2"
        },
        {
            "componentType" : 5123,
            "count" : 6,
            "type" : "SCALAR"
        },
        {
            "componentType" : 5126,
            "count" : 4,
            "max" : [
                2.0137264728546143,
                0,
                0.08306849747896194
            ],
            "min" : [
                -2.0137264728546143,
                0,
                -0.08306849747896194
            ],
            "type" : "VEC3"
        },
        {
            "componentType" : 5126,
            "count" : 4,
            "type" : "VEC3"
        },
        {
            "componentType" : 5126,
            "count" : 4,
            "type" : "VEC2"
        },
        {
            "componentType" : 5126,
            "count" : 4,
            "max" : [
                35.629032135009766,
                0,
                0.5
            ],
            "min" : [
                -35.629032135009766,
                0,
                -0.5
            ],
            "type" : "VEC3"
        },
        {
            "componentType" : 5126,
            "count" : 4,
            "type" : "VEC3"
        },
        {
            "componentType" : 5126,
            "count" : 4,
            "type" : "VEC2"
        }
    ],
    "bufferViews" : [
        {
            "buffer" : 0,
            "byteLength" : 200,
            "byteOffset" : 0
        },
        {
            "buffer" : 0,
            "byteLength" : 203,
            "byteOffset" : 200
        },
        {
            "buffer" : 0,
            "byteLength" : 200,
            "byteOffset" : 404
        }
    ],
    "buffers" : [
        {
            "byteLength" : 604,
            "uri" : "P_alfaceCrespaRoxa.bin"
        }
    ]
}
