{
    "asset" : {
        "generator" : "Khronos glTF Blender I/O v1.3.48",
        "version" : "2.0"
    },
    "extensionsUsed" : [
        "KHR_draco_mesh_compression"
    ],
    "extensionsRequired" : [
        "KHR_draco_mesh_compression"
    ],
    "scene" : 0,
    "scenes" : [
        {
            "name" : "Scene",
            "nodes" : [
                0,
                1,
                2
            ]
        }
    ],
    "nodes" : [
        {
            "mesh" : 0,
            "name" : "alfaceAmericanaDeVerao_ladoHorizontal",
            "rotation" : [
                0.7071068286895752,
                0,
                0,
                0.7071068286895752
            ],
            "scale" : [
                0.9761186242103577,
                0.9761186242103577,
                0.9761186242103577
            ],
            "translation" : [
                -0.0014693178236484528,
                0.13965372741222382,
                -0.058460548520088196
            ]
        },
        {
            "mesh" : 1,
            "name" : "alfaceAmericanaDeVerao_topo",
            "scale" : [
                0.9761186242103577,
                0.9761186242103577,
                0.9761186242103577
            ],
            "translation" : [
                -0.0014693178236484528,
                0.13964258134365082,
                0
            ]
        },
        {
            "mesh" : 2,
            "name" : "alfaceAmericanaDeVerao_ladoHorizontal_001",
            "rotation" : [
                0.7071068286895752,
                0,
                0,
                0.7071068286895752
            ],
            "scale" : [
                0.1418129801750183,
                0.1418129801750183,
                0.1418129801750183
            ],
            "translation" : [
                -0.0014693178236484528,
                0.13965372741222382,
                0.058460719883441925
            ]
        }
    ],
    "materials" : [
        {
            "alphaMode" : "BLEND",
            "doubleSided" : true,
            "emissiveFactor" : [
                0,
                0,
                0
            ],
            "name" : "Estacao_B",
            "pbrMetallicRoughness" : {
                "baseColorTexture" : {
                    "index" : 0,
                    "texCoord" : 0
                },
                "metallicFactor" : 0,
                "roughnessFactor" : 0.5
            }
        }
    ],
    "meshes" : [
        {
            "name" : "alfaceAmericanaDeVerao_ladoHorizontal",
            "primitives" : [
                {
                    "attributes" : {
                        "POSITION" : 0,
                        "NORMAL" : 1,
                        "TEXCOORD_0" : 2
                    },
                    "extensions" : {
                        "KHR_draco_mesh_compression" : {
                            "bufferView" : 0,
                            "attributes" : {
                                "POSITION" : 0,
                                "NORMAL" : 1,
                                "TEXCOORD_0" : 2
                            }
                        }
                    },
                    "indices" : 3,
                    "material" : 0,
                    "mode" : 4
                }
            ]
        },
        {
            "name" : "alfaceAmericanaDeVerao_topo",
            "primitives" : [
                {
                    "attributes" : {
                        "POSITION" : 4,
                        "NORMAL" : 5,
                        "TEXCOORD_0" : 6
                    },
                    "extensions" : {
                        "KHR_draco_mesh_compression" : {
                            "bufferView" : 1,
                            "attributes" : {
                                "POSITION" : 0,
                                "NORMAL" : 1,
                                "TEXCOORD_0" : 2
                            }
                        }
                    },
                    "indices" : 3,
                    "material" : 0,
                    "mode" : 4
                }
            ]
        },
        {
            "name" : "alfaceAmericanaDeVerao_ladoHorizontal.001",
            "primitives" : [
                {
                    "attributes" : {
                        "POSITION" : 7,
                        "NORMAL" : 8,
                        "TEXCOORD_0" : 9
                    },
                    "extensions" : {
                        "KHR_draco_mesh_compression" : {
                            "bufferView" : 2,
                            "attributes" : {
                                "POSITION" : 0,
                                "NORMAL" : 1,
                                "TEXCOORD_0" : 2
                            }
                        }
                    },
                    "indices" : 3,
                    "material" : 0,
                    "mode" : 4
                }
            ]
        }
    ],
    "textures" : [
        {
            "source" : 0
        }
    ],
    "images" : [
        {
            "mimeType" : "image/png",
            "name" : "Est_B",
            "uri" : "Est_B.png"
        }
    ],
    "accessors" : [
        {
            "componentType" : 5126,
            "count" : 4,
            "max" : [
                2.0507187843322754,
                0,
                0.07264126092195511
            ],
            "min" : [
                -2.0507187843322754,
                0,
                -0.07264126092195511
            ],
            "type" : "VEC3"
        },
        {
            "componentType" : 5126,
            "count" : 4,
            "type" : "VEC3"
        },
        {
            "componentType" : 5126,
            "count" : 4,
            "type" : "VEC2"
        },
        {
            "componentType" : 5123,
            "count" : 6,
            "type" : "SCALAR"
        },
        {
            "componentType" : 5126,
            "count" : 4,
            "max" : [
                2.0564165115356445,
                0,
                0.13989228010177612
            ],
            "min" : [
                -2.0564165115356445,
                0,
                -0.13989228010177612
            ],
            "type" : "VEC3"
        },
        {
            "componentType" : 5126,
            "count" : 4,
            "type" : "VEC3"
        },
        {
            "componentType" : 5126,
            "count" : 4,
            "type" : "VEC2"
        },
        {
            "componentType" : 5126,
            "count" : 4,
            "max" : [
                14.115385055541992,
                0,
                0.5
            ],
            "min" : [
                -14.115385055541992,
                0,
                -0.5
            ],
            "type" : "VEC3"
        },
        {
            "componentType" : 5126,
            "count" : 4,
            "type" : "VEC3"
        },
        {
            "componentType" : 5126,
            "count" : 4,
            "type" : "VEC2"
        }
    ],
    "bufferViews" : [
        {
            "buffer" : 0,
            "byteLength" : 203,
            "byteOffset" : 0
        },
        {
            "buffer" : 0,
            "byteLength" : 204,
            "byteOffset" : 204
        },
        {
            "buffer" : 0,
            "byteLength" : 203,
            "byteOffset" : 408
        }
    ],
    "buffers" : [
        {
            "byteLength" : 612,
            "uri" : "P_alfaceAmericanaDeVerao.bin"
        }
    ]
}
