{
    "asset" : {
        "generator" : "Khronos glTF Blender I/O v1.3.48",
        "version" : "2.0"
    },
    "scene" : 0,
    "scenes" : [
        {
            "name" : "Scene",
            "nodes" : [
                0,
                1,
                2,
                3,
                4,
                5,
                6,
                7,
                8,
                9,
                10,
                11,
                12,
                13
            ]
        }
    ],
    "nodes" : [
        {
            "mesh" : 0,
            "name" : "feijaoVagemIndeterminado_topo",
            "translation" : [
                0,
                0.6324223875999451,
                0
            ]
        },
        {
            "mesh" : 1,
            "name" : "feijaoVagemIndeterminado_ladoHorizontal",
            "rotation" : [
                0.7071068286895752,
                0,
                0,
                0.7071068286895752
            ],
            "translation" : [
                0,
                0.40690046548843384,
                0
            ]
        },
        {
            "mesh" : 2,
            "name" : "feijaoVagemIndeterminado_ladoVertical",
            "rotation" : [
                0.5,
                0.5,
                -0.5,
                0.4999999701976776
            ],
            "scale" : [
                0.6898056864738464,
                0.9467608332633972,
                0.6898056864738464
            ],
            "translation" : [
                -1.8084627389907837,
                0.40655723214149475,
                0
            ]
        },
        {
            "mesh" : 3,
            "name" : "feijaoVagemIndeterminado_ladoVertical_001",
            "rotation" : [
                0.5,
                0.5,
                -0.5,
                0.4999999701976776
            ],
            "scale" : [
                0.6898056864738464,
                0.9467608332633972,
                0.6898056864738464
            ],
            "translation" : [
                -1.5630309581756592,
                0.40655723214149475,
                0
            ]
        },
        {
            "mesh" : 4,
            "name" : "feijaoVagemIndeterminado_ladoVertical_002",
            "rotation" : [
                0.5,
                0.5,
                -0.5,
                0.4999999701976776
            ],
            "scale" : [
                0.6898056864738464,
                0.9467608332633972,
                0.6898056864738464
            ],
            "translation" : [
                -1.0882678031921387,
                0.40655723214149475,
                0
            ]
        },
        {
            "mesh" : 5,
            "name" : "feijaoVagemIndeterminado_ladoVertical_003",
            "rotation" : [
                0.5,
                0.5,
                -0.5,
                0.4999999701976776
            ],
            "scale" : [
                0.6898056864738464,
                0.9467608332633972,
                0.6898056864738464
            ],
            "translation" : [
                -0.829730212688446,
                0.40655723214149475,
                0
            ]
        },
        {
            "mesh" : 6,
            "name" : "feijaoVagemIndeterminado_ladoVertical_004",
            "rotation" : [
                0.5,
                0.5,
                -0.5,
                0.4999999701976776
            ],
            "scale" : [
                0.6898056864738464,
                0.9467608332633972,
                0.6898056864738464
            ],
            "translation" : [
                -0.5863094329833984,
                0.40655723214149475,
                0
            ]
        },
        {
            "mesh" : 7,
            "name" : "feijaoVagemIndeterminado_ladoVertical_005",
            "rotation" : [
                0.5,
                0.5,
                -0.5,
                0.4999999701976776
            ],
            "scale" : [
                0.6898056864738464,
                0.9467608332633972,
                0.6898056864738464
            ],
            "translation" : [
                -0.10449622571468353,
                0.40655723214149475,
                0
            ]
        },
        {
            "mesh" : 8,
            "name" : "feijaoVagemIndeterminado_ladoVertical_006",
            "rotation" : [
                0.5,
                0.5,
                -0.5,
                0.4999999701976776
            ],
            "scale" : [
                0.6898056864738464,
                0.9467608332633972,
                0.6898056864738464
            ],
            "translation" : [
                0.13099300861358643,
                0.40655723214149475,
                0
            ]
        },
        {
            "mesh" : 9,
            "name" : "feijaoVagemIndeterminado_ladoVertical_007",
            "rotation" : [
                0.5,
                0.5,
                -0.5,
                0.4999999701976776
            ],
            "scale" : [
                0.6898056864738464,
                0.9467608332633972,
                0.6898056864738464
            ],
            "translation" : [
                0.6171220541000366,
                0.40655723214149475,
                0
            ]
        },
        {
            "mesh" : 10,
            "name" : "feijaoVagemIndeterminado_ladoVertical_008",
            "rotation" : [
                0.5,
                0.5,
                -0.5,
                0.4999999701976776
            ],
            "scale" : [
                0.6898056864738464,
                0.9467608332633972,
                0.6898056864738464
            ],
            "translation" : [
                0.8579440712928772,
                0.40655723214149475,
                0
            ]
        },
        {
            "mesh" : 11,
            "name" : "feijaoVagemIndeterminado_ladoVertical_009",
            "rotation" : [
                0.5,
                0.5,
                -0.5,
                0.4999999701976776
            ],
            "scale" : [
                0.6898056864738464,
                0.9467608332633972,
                0.6898056864738464
            ],
            "translation" : [
                1.1206622123718262,
                0.40655723214149475,
                0
            ]
        },
        {
            "mesh" : 12,
            "name" : "feijaoVagemIndeterminado_ladoVertical_010",
            "rotation" : [
                0.5,
                0.5,
                -0.5,
                0.4999999701976776
            ],
            "scale" : [
                0.6898056864738464,
                0.9467608332633972,
                0.6898056864738464
            ],
            "translation" : [
                1.6085312366485596,
                0.40655723214149475,
                0
            ]
        },
        {
            "mesh" : 13,
            "name" : "feijaoVagemIndeterminado_ladoVertical_011",
            "rotation" : [
                0.5,
                0.5,
                -0.5,
                0.4999999701976776
            ],
            "scale" : [
                0.6898056864738464,
                0.9467608332633972,
                0.6898056864738464
            ],
            "translation" : [
                1.867068886756897,
                0.40655723214149475,
                0
            ]
        }
    ],
    "materials" : [
        {
            "alphaMode" : "BLEND",
            "doubleSided" : true,
            "emissiveFactor" : [
                0,
                0,
                0
            ],
            "name" : "EstacaoF.002",
            "pbrMetallicRoughness" : {
                "baseColorTexture" : {
                    "index" : 0,
                    "texCoord" : 0
                },
                "metallicFactor" : 0,
                "roughnessFactor" : 0.5
            }
        }
    ],
    "meshes" : [
        {
            "name" : "feijaoVagemIndeterminado_topo.001",
            "primitives" : [
                {
                    "attributes" : {
                        "POSITION" : 0,
                        "NORMAL" : 1,
                        "TEXCOORD_0" : 2
                    },
                    "indices" : 3,
                    "material" : 0
                }
            ]
        },
        {
            "name" : "feijaoVagemIndeterminado_ladoHorizontal.001",
            "primitives" : [
                {
                    "attributes" : {
                        "POSITION" : 4,
                        "NORMAL" : 5,
                        "TEXCOORD_0" : 6
                    },
                    "indices" : 7,
                    "material" : 0
                }
            ]
        },
        {
            "name" : "feijaoVagemIndeterminado_ladoVertical.018",
            "primitives" : [
                {
                    "attributes" : {
                        "POSITION" : 8,
                        "NORMAL" : 9,
                        "TEXCOORD_0" : 10
                    },
                    "indices" : 3,
                    "material" : 0
                }
            ]
        },
        {
            "name" : "feijaoVagemIndeterminado_ladoVertical.019",
            "primitives" : [
                {
                    "attributes" : {
                        "POSITION" : 11,
                        "NORMAL" : 12,
                        "TEXCOORD_0" : 13
                    },
                    "indices" : 3,
                    "material" : 0
                }
            ]
        },
        {
            "name" : "feijaoVagemIndeterminado_ladoVertical.020",
            "primitives" : [
                {
                    "attributes" : {
                        "POSITION" : 14,
                        "NORMAL" : 15,
                        "TEXCOORD_0" : 16
                    },
                    "indices" : 3,
                    "material" : 0
                }
            ]
        },
        {
            "name" : "feijaoVagemIndeterminado_ladoVertical.021",
            "primitives" : [
                {
                    "attributes" : {
                        "POSITION" : 17,
                        "NORMAL" : 18,
                        "TEXCOORD_0" : 19
                    },
                    "indices" : 3,
                    "material" : 0
                }
            ]
        },
        {
            "name" : "feijaoVagemIndeterminado_ladoVertical.022",
            "primitives" : [
                {
                    "attributes" : {
                        "POSITION" : 20,
                        "NORMAL" : 21,
                        "TEXCOORD_0" : 22
                    },
                    "indices" : 3,
                    "material" : 0
                }
            ]
        },
        {
            "name" : "feijaoVagemIndeterminado_ladoVertical.023",
            "primitives" : [
                {
                    "attributes" : {
                        "POSITION" : 23,
                        "NORMAL" : 24,
                        "TEXCOORD_0" : 25
                    },
                    "indices" : 3,
                    "material" : 0
                }
            ]
        },
        {
            "name" : "feijaoVagemIndeterminado_ladoVertical.024",
            "primitives" : [
                {
                    "attributes" : {
                        "POSITION" : 26,
                        "NORMAL" : 27,
                        "TEXCOORD_0" : 28
                    },
                    "indices" : 3,
                    "material" : 0
                }
            ]
        },
        {
            "name" : "feijaoVagemIndeterminado_ladoVertical.025",
            "primitives" : [
                {
                    "attributes" : {
                        "POSITION" : 29,
                        "NORMAL" : 30,
                        "TEXCOORD_0" : 31
                    },
                    "indices" : 3,
                    "material" : 0
                }
            ]
        },
        {
            "name" : "feijaoVagemIndeterminado_ladoVertical.026",
            "primitives" : [
                {
                    "attributes" : {
                        "POSITION" : 32,
                        "NORMAL" : 33,
                        "TEXCOORD_0" : 34
                    },
                    "indices" : 3,
                    "material" : 0
                }
            ]
        },
        {
            "name" : "feijaoVagemIndeterminado_ladoVertical.027",
            "primitives" : [
                {
                    "attributes" : {
                        "POSITION" : 35,
                        "NORMAL" : 36,
                        "TEXCOORD_0" : 37
                    },
                    "indices" : 3,
                    "material" : 0
                }
            ]
        },
        {
            "name" : "feijaoVagemIndeterminado_ladoVertical.028",
            "primitives" : [
                {
                    "attributes" : {
                        "POSITION" : 38,
                        "NORMAL" : 39,
                        "TEXCOORD_0" : 40
                    },
                    "indices" : 3,
                    "material" : 0
                }
            ]
        },
        {
            "name" : "feijaoVagemIndeterminado_ladoVertical.029",
            "primitives" : [
                {
                    "attributes" : {
                        "POSITION" : 41,
                        "NORMAL" : 42,
                        "TEXCOORD_0" : 43
                    },
                    "indices" : 3,
                    "material" : 0
                }
            ]
        }
    ],
    "textures" : [
        {
            "source" : 0
        }
    ],
    "images" : [
        {
            "mimeType" : "image/png",
            "name" : "Est_F",
            "uri" : "Est_F.png"
        }
    ],
    "accessors" : [
        {
            "bufferView" : 0,
            "componentType" : 5126,
            "count" : 4,
            "max" : [
                1.9886445999145508,
                0,
                0.14863349497318268
            ],
            "min" : [
                -1.9886445999145508,
                0,
                -0.14863349497318268
            ],
            "type" : "VEC3"
        },
        {
            "bufferView" : 1,
            "componentType" : 5126,
            "count" : 4,
            "type" : "VEC3"
        },
        {
            "bufferView" : 2,
            "componentType" : 5126,
            "count" : 4,
            "type" : "VEC2"
        },
        {
            "bufferView" : 3,
            "componentType" : 5123,
            "count" : 6,
            "type" : "SCALAR"
        },
        {
            "bufferView" : 4,
            "componentType" : 5126,
            "count" : 4,
            "max" : [
                1.9824800491333008,
                0,
                0.346956342458725
            ],
            "min" : [
                -1.9824800491333008,
                0,
                -0.346956342458725
            ],
            "type" : "VEC3"
        },
        {
            "bufferView" : 5,
            "componentType" : 5126,
            "count" : 4,
            "type" : "VEC3"
        },
        {
            "bufferView" : 6,
            "componentType" : 5126,
            "count" : 4,
            "type" : "VEC2"
        },
        {
            "bufferView" : 7,
            "componentType" : 5123,
            "count" : 6,
            "type" : "SCALAR"
        },
        {
            "bufferView" : 8,
            "componentType" : 5126,
            "count" : 4,
            "max" : [
                0.21134020388126373,
                0,
                0.5
            ],
            "min" : [
                -0.21134020388126373,
                0,
                -0.5
            ],
            "type" : "VEC3"
        },
        {
            "bufferView" : 9,
            "componentType" : 5126,
            "count" : 4,
            "type" : "VEC3"
        },
        {
            "bufferView" : 10,
            "componentType" : 5126,
            "count" : 4,
            "type" : "VEC2"
        },
        {
            "bufferView" : 11,
            "componentType" : 5126,
            "count" : 4,
            "max" : [
                0.21134020388126373,
                0,
                0.5
            ],
            "min" : [
                -0.21134020388126373,
                0,
                -0.5
            ],
            "type" : "VEC3"
        },
        {
            "bufferView" : 12,
            "componentType" : 5126,
            "count" : 4,
            "type" : "VEC3"
        },
        {
            "bufferView" : 13,
            "componentType" : 5126,
            "count" : 4,
            "type" : "VEC2"
        },
        {
            "bufferView" : 14,
            "componentType" : 5126,
            "count" : 4,
            "max" : [
                0.21134020388126373,
                0,
                0.5
            ],
            "min" : [
                -0.21134020388126373,
                0,
                -0.5
            ],
            "type" : "VEC3"
        },
        {
            "bufferView" : 15,
            "componentType" : 5126,
            "count" : 4,
            "type" : "VEC3"
        },
        {
            "bufferView" : 16,
            "componentType" : 5126,
            "count" : 4,
            "type" : "VEC2"
        },
        {
            "bufferView" : 17,
            "componentType" : 5126,
            "count" : 4,
            "max" : [
                0.21134020388126373,
                0,
                0.5
            ],
            "min" : [
                -0.21134020388126373,
                0,
                -0.5
            ],
            "type" : "VEC3"
        },
        {
            "bufferView" : 18,
            "componentType" : 5126,
            "count" : 4,
            "type" : "VEC3"
        },
        {
            "bufferView" : 19,
            "componentType" : 5126,
            "count" : 4,
            "type" : "VEC2"
        },
        {
            "bufferView" : 20,
            "componentType" : 5126,
            "count" : 4,
            "max" : [
                0.21134020388126373,
                0,
                0.5
            ],
            "min" : [
                -0.21134020388126373,
                0,
                -0.5
            ],
            "type" : "VEC3"
        },
        {
            "bufferView" : 21,
            "componentType" : 5126,
            "count" : 4,
            "type" : "VEC3"
        },
        {
            "bufferView" : 22,
            "componentType" : 5126,
            "count" : 4,
            "type" : "VEC2"
        },
        {
            "bufferView" : 23,
            "componentType" : 5126,
            "count" : 4,
            "max" : [
                0.21134020388126373,
                0,
                0.5
            ],
            "min" : [
                -0.21134020388126373,
                0,
                -0.5
            ],
            "type" : "VEC3"
        },
        {
            "bufferView" : 24,
            "componentType" : 5126,
            "count" : 4,
            "type" : "VEC3"
        },
        {
            "bufferView" : 25,
            "componentType" : 5126,
            "count" : 4,
            "type" : "VEC2"
        },
        {
            "bufferView" : 26,
            "componentType" : 5126,
            "count" : 4,
            "max" : [
                0.21134020388126373,
                0,
                0.5
            ],
            "min" : [
                -0.21134020388126373,
                0,
                -0.5
            ],
            "type" : "VEC3"
        },
        {
            "bufferView" : 27,
            "componentType" : 5126,
            "count" : 4,
            "type" : "VEC3"
        },
        {
            "bufferView" : 28,
            "componentType" : 5126,
            "count" : 4,
            "type" : "VEC2"
        },
        {
            "bufferView" : 29,
            "componentType" : 5126,
            "count" : 4,
            "max" : [
                0.21134020388126373,
                0,
                0.5
            ],
            "min" : [
                -0.21134020388126373,
                0,
                -0.5
            ],
            "type" : "VEC3"
        },
        {
            "bufferView" : 30,
            "componentType" : 5126,
            "count" : 4,
            "type" : "VEC3"
        },
        {
            "bufferView" : 31,
            "componentType" : 5126,
            "count" : 4,
            "type" : "VEC2"
        },
        {
            "bufferView" : 32,
            "componentType" : 5126,
            "count" : 4,
            "max" : [
                0.21134020388126373,
                0,
                0.5
            ],
            "min" : [
                -0.21134020388126373,
                0,
                -0.5
            ],
            "type" : "VEC3"
        },
        {
            "bufferView" : 33,
            "componentType" : 5126,
            "count" : 4,
            "type" : "VEC3"
        },
        {
            "bufferView" : 34,
            "componentType" : 5126,
            "count" : 4,
            "type" : "VEC2"
        },
        {
            "bufferView" : 35,
            "componentType" : 5126,
            "count" : 4,
            "max" : [
                0.21134020388126373,
                0,
                0.5
            ],
            "min" : [
                -0.21134020388126373,
                0,
                -0.5
            ],
            "type" : "VEC3"
        },
        {
            "bufferView" : 36,
            "componentType" : 5126,
            "count" : 4,
            "type" : "VEC3"
        },
        {
            "bufferView" : 37,
            "componentType" : 5126,
            "count" : 4,
            "type" : "VEC2"
        },
        {
            "bufferView" : 38,
            "componentType" : 5126,
            "count" : 4,
            "max" : [
                0.21134020388126373,
                0,
                0.5
            ],
            "min" : [
                -0.21134020388126373,
                0,
                -0.5
            ],
            "type" : "VEC3"
        },
        {
            "bufferView" : 39,
            "componentType" : 5126,
            "count" : 4,
            "type" : "VEC3"
        },
        {
            "bufferView" : 40,
            "componentType" : 5126,
            "count" : 4,
            "type" : "VEC2"
        },
        {
            "bufferView" : 41,
            "componentType" : 5126,
            "count" : 4,
            "max" : [
                0.21134020388126373,
                0,
                0.5
            ],
            "min" : [
                -0.21134020388126373,
                0,
                -0.5
            ],
            "type" : "VEC3"
        },
        {
            "bufferView" : 42,
            "componentType" : 5126,
            "count" : 4,
            "type" : "VEC3"
        },
        {
            "bufferView" : 43,
            "componentType" : 5126,
            "count" : 4,
            "type" : "VEC2"
        }
    ],
    "bufferViews" : [
        {
            "buffer" : 0,
            "byteLength" : 48,
            "byteOffset" : 0
        },
        {
            "buffer" : 0,
            "byteLength" : 48,
            "byteOffset" : 48
        },
        {
            "buffer" : 0,
            "byteLength" : 32,
            "byteOffset" : 96
        },
        {
            "buffer" : 0,
            "byteLength" : 12,
            "byteOffset" : 128
        },
        {
            "buffer" : 0,
            "byteLength" : 48,
            "byteOffset" : 140
        },
        {
            "buffer" : 0,
            "byteLength" : 48,
            "byteOffset" : 188
        },
        {
            "buffer" : 0,
            "byteLength" : 32,
            "byteOffset" : 236
        },
        {
            "buffer" : 0,
            "byteLength" : 12,
            "byteOffset" : 268
        },
        {
            "buffer" : 0,
            "byteLength" : 48,
            "byteOffset" : 280
        },
        {
            "buffer" : 0,
            "byteLength" : 48,
            "byteOffset" : 328
        },
        {
            "buffer" : 0,
            "byteLength" : 32,
            "byteOffset" : 376
        },
        {
            "buffer" : 0,
            "byteLength" : 48,
            "byteOffset" : 408
        },
        {
            "buffer" : 0,
            "byteLength" : 48,
            "byteOffset" : 456
        },
        {
            "buffer" : 0,
            "byteLength" : 32,
            "byteOffset" : 504
        },
        {
            "buffer" : 0,
            "byteLength" : 48,
            "byteOffset" : 536
        },
        {
            "buffer" : 0,
            "byteLength" : 48,
            "byteOffset" : 584
        },
        {
            "buffer" : 0,
            "byteLength" : 32,
            "byteOffset" : 632
        },
        {
            "buffer" : 0,
            "byteLength" : 48,
            "byteOffset" : 664
        },
        {
            "buffer" : 0,
            "byteLength" : 48,
            "byteOffset" : 712
        },
        {
            "buffer" : 0,
            "byteLength" : 32,
            "byteOffset" : 760
        },
        {
            "buffer" : 0,
            "byteLength" : 48,
            "byteOffset" : 792
        },
        {
            "buffer" : 0,
            "byteLength" : 48,
            "byteOffset" : 840
        },
        {
            "buffer" : 0,
            "byteLength" : 32,
            "byteOffset" : 888
        },
        {
            "buffer" : 0,
            "byteLength" : 48,
            "byteOffset" : 920
        },
        {
            "buffer" : 0,
            "byteLength" : 48,
            "byteOffset" : 968
        },
        {
            "buffer" : 0,
            "byteLength" : 32,
            "byteOffset" : 1016
        },
        {
            "buffer" : 0,
            "byteLength" : 48,
            "byteOffset" : 1048
        },
        {
            "buffer" : 0,
            "byteLength" : 48,
            "byteOffset" : 1096
        },
        {
            "buffer" : 0,
            "byteLength" : 32,
            "byteOffset" : 1144
        },
        {
            "buffer" : 0,
            "byteLength" : 48,
            "byteOffset" : 1176
        },
        {
            "buffer" : 0,
            "byteLength" : 48,
            "byteOffset" : 1224
        },
        {
            "buffer" : 0,
            "byteLength" : 32,
            "byteOffset" : 1272
        },
        {
            "buffer" : 0,
            "byteLength" : 48,
            "byteOffset" : 1304
        },
        {
            "buffer" : 0,
            "byteLength" : 48,
            "byteOffset" : 1352
        },
        {
            "buffer" : 0,
            "byteLength" : 32,
            "byteOffset" : 1400
        },
        {
            "buffer" : 0,
            "byteLength" : 48,
            "byteOffset" : 1432
        },
        {
            "buffer" : 0,
            "byteLength" : 48,
            "byteOffset" : 1480
        },
        {
            "buffer" : 0,
            "byteLength" : 32,
            "byteOffset" : 1528
        },
        {
            "buffer" : 0,
            "byteLength" : 48,
            "byteOffset" : 1560
        },
        {
            "buffer" : 0,
            "byteLength" : 48,
            "byteOffset" : 1608
        },
        {
            "buffer" : 0,
            "byteLength" : 32,
            "byteOffset" : 1656
        },
        {
            "buffer" : 0,
            "byteLength" : 48,
            "byteOffset" : 1688
        },
        {
            "buffer" : 0,
            "byteLength" : 48,
            "byteOffset" : 1736
        },
        {
            "buffer" : 0,
            "byteLength" : 32,
            "byteOffset" : 1784
        }
    ],
    "buffers" : [
        {
            "byteLength" : 1816,
            "uri" : "P_feijaoVagemIndeterminado.bin"
        }
    ]
}
