{
    "asset" : {
        "generator" : "Khronos glTF Blender I/O v1.3.48",
        "version" : "2.0"
    },
    "extensionsUsed" : [
        "KHR_draco_mesh_compression"
    ],
    "extensionsRequired" : [
        "KHR_draco_mesh_compression"
    ],
    "scene" : 0,
    "scenes" : [
        {
            "name" : "Scene",
            "nodes" : [
                0,
                1
            ]
        }
    ],
    "nodes" : [
        {
            "mesh" : 0,
            "name" : "poblano_topo",
            "translation" : [
                0,
                0.26170873641967773,
                0
            ]
        },
        {
            "mesh" : 1,
            "name" : "poblano_ladoHorizontal",
            "rotation" : [
                0.7071068286895752,
                0,
                0,
                0.7071068286895752
            ],
            "translation" : [
                0,
                0.24059666693210602,
                0
            ]
        }
    ],
    "materials" : [
        {
            "alphaMode" : "BLEND",
            "doubleSided" : true,
            "emissiveFactor" : [
                0,
                0,
                0
            ],
            "name" : "EstacaoF.006",
            "pbrMetallicRoughness" : {
                "baseColorTexture" : {
                    "index" : 0,
                    "texCoord" : 0
                },
                "metallicFactor" : 0,
                "roughnessFactor" : 0.5
            }
        }
    ],
    "meshes" : [
        {
            "name" : "poblano_topo.001",
            "primitives" : [
                {
                    "attributes" : {
                        "POSITION" : 0,
                        "NORMAL" : 1,
                        "TEXCOORD_0" : 2
                    },
                    "extensions" : {
                        "KHR_draco_mesh_compression" : {
                            "bufferView" : 0,
                            "attributes" : {
                                "POSITION" : 0,
                                "NORMAL" : 1,
                                "TEXCOORD_0" : 2
                            }
                        }
                    },
                    "indices" : 3,
                    "material" : 0,
                    "mode" : 4
                }
            ]
        },
        {
            "name" : "poblano_ladoHorizontal.001",
            "primitives" : [
                {
                    "attributes" : {
                        "POSITION" : 4,
                        "NORMAL" : 5,
                        "TEXCOORD_0" : 6
                    },
                    "extensions" : {
                        "KHR_draco_mesh_compression" : {
                            "bufferView" : 1,
                            "attributes" : {
                                "POSITION" : 0,
                                "NORMAL" : 1,
                                "TEXCOORD_0" : 2
                            }
                        }
                    },
                    "indices" : 7,
                    "material" : 0,
                    "mode" : 4
                }
            ]
        }
    ],
    "textures" : [
        {
            "source" : 0
        }
    ],
    "images" : [
        {
            "mimeType" : "image/png",
            "name" : "Est_F",
            "uri" : "Est_F.png"
        }
    ],
    "accessors" : [
        {
            "componentType" : 5126,
            "count" : 4,
            "max" : [
                1.9923356771469116,
                0,
                0.14724788069725037
            ],
            "min" : [
                -1.9923356771469116,
                0,
                -0.14724788069725037
            ],
            "type" : "VEC3"
        },
        {
            "componentType" : 5126,
            "count" : 4,
            "type" : "VEC3"
        },
        {
            "componentType" : 5126,
            "count" : 4,
            "type" : "VEC2"
        },
        {
            "componentType" : 5123,
            "count" : 6,
            "type" : "SCALAR"
        },
        {
            "componentType" : 5126,
            "count" : 4,
            "max" : [
                1.9843958616256714,
                0,
                0.17991138994693756
            ],
            "min" : [
                -1.9843958616256714,
                0,
                -0.17991138994693756
            ],
            "type" : "VEC3"
        },
        {
            "componentType" : 5126,
            "count" : 4,
            "type" : "VEC3"
        },
        {
            "componentType" : 5126,
            "count" : 4,
            "type" : "VEC2"
        },
        {
            "componentType" : 5123,
            "count" : 6,
            "type" : "SCALAR"
        }
    ],
    "bufferViews" : [
        {
            "buffer" : 0,
            "byteLength" : 204,
            "byteOffset" : 0
        },
        {
            "buffer" : 0,
            "byteLength" : 199,
            "byteOffset" : 204
        }
    ],
    "buffers" : [
        {
            "byteLength" : 404,
            "uri" : "P_poblano.bin"
        }
    ]
}
